<?xml version="1.0" encoding="UTF-8"?>
<svg width="12px" height="18px" viewBox="0 0 12 18" version="1.1" xmlns="http://www.w3.org/2000/svg" xmlns:xlink="http://www.w3.org/1999/xlink">
    <!-- Generator: Sketch 47.1 (45422) - http://www.bohemiancoding.com/sketch -->
    <title>Shape</title>
    <desc>Created with Sketch.</desc>
    <defs></defs>
    <g id="Symbols" stroke="none" stroke-width="1" fill="none" fill-rule="evenodd" opacity="0.249377264">
        <g id="dish/own" transform="translate(-148.000000, -359.000000)" fill-rule="nonzero" fill="#F5A623">
            <g id="participants" transform="translate(36.000000, 359.000000)">
                <path d="M112.000968,7.29942603 L112.208828,0.551430678 C112.223064,0.242709873 112.469495,7.33706059e-05 112.768451,0.000423981109 L112.768451,0.000423981109 C113.067408,7.33706059e-05 113.313839,0.242709873 113.328074,0.551430678 L113.475531,4.95948425 C113.478498,5.19764566 113.64894,5.3980247 113.877038,5.43151332 C114.000981,5.44535912 114.124919,5.40536579 114.219238,5.3210896 C114.313556,5.2368134 114.369782,5.11582516 114.374481,4.98703459 L114.520161,0.578981013 C114.524352,0.305095494 114.709377,0.0697846275 114.967859,0.00960742606 C115.041961,-0.00320247535 115.117607,-0.00320247535 115.191709,0.00960742606 C115.450191,0.0697846275 115.635216,0.305095494 115.639407,0.578981013 L115.785087,4.98703459 C115.789786,5.11582516 115.846012,5.2368134 115.94033,5.3210896 C116.034649,5.40536579 116.158587,5.44535912 116.28253,5.43151332 C116.510628,5.3980247 116.68107,5.19764566 116.684037,4.95948425 L116.829717,0.551430678 C116.843953,0.242709873 117.090383,7.33706059e-05 117.38934,0.000423981109 L117.38934,0.000423981109 C117.688297,7.33706059e-05 117.934727,0.242709873 117.948963,0.551430678 L118.156823,7.29207927 C118.178722,7.94455758 117.857156,8.55814062 117.3165,8.89550876 L116.284306,9.55120673 L116.284306,17.3644817 C116.284306,17.7154555 116.009097,17.9999761 115.669609,17.9999761 L114.47397,17.9999761 C114.134482,17.9999761 113.859272,17.7154555 113.859272,17.3644817 L113.859272,9.5383499 L112.848397,8.9046922 C112.304444,8.56886628 111.979886,7.95406307 112.000968,7.29942603 Z M120.148371,11.5238107 L121.569636,11.5238107 L121.569636,17.3644817 C121.56963,17.5339843 121.635124,17.6964655 121.751557,17.8158035 C121.867991,17.9351414 122.025714,18.0014458 122.189663,17.9999761 L123.385303,17.9999761 C123.72463,17.9999761 124,17.7152893 124,16.7565376 L124,0.448576095 C123.988285,0.282954968 123.893564,0.135758834 123.750332,0.0605924101 C123.607101,-0.0145740134 123.43626,-0.0067412235 123.300027,0.0812382966 L123.300027,0.0812382966 C121.061201,1.5288269 119.701113,4.06619959 119.700673,6.79617324 L119.700673,11.0701485 C119.700673,11.1929028 119.747841,11.3106294 119.8318,11.3974298 C119.91576,11.4842302 120.029634,11.5329941 120.148371,11.5329941 L120.148371,11.5238107 Z" id="Shape"></path>
            </g>
        </g>
    </g>
</svg>