<?xml version="1.0" encoding="UTF-8"?>
<svg width="154px" height="159px" viewBox="0 0 154 159" version="1.1" xmlns="http://www.w3.org/2000/svg" xmlns:xlink="http://www.w3.org/1999/xlink">
    <!-- Generator: Sketch 47.1 (45422) - http://www.bohemiancoding.com/sketch -->
    <title>logo</title>
    <desc>Created with Sketch.</desc>
    <defs></defs>
    <g id="Welcome" stroke="none" stroke-width="1" fill="none" fill-rule="evenodd">
        <g id="Dishes" transform="translate(-643.000000, -110.000000)" fill-rule="nonzero" fill="#F5A623">
            <g id="logo" transform="translate(643.000000, 110.000000)">
                <path d="M115.706974,7.82408743 C114.499631,7.82408743 113.292289,7.93428585 112.194705,8.26488109 C110.109296,3.30595244 105.170169,0 99.7920087,0 C94.4138481,0 89.6942378,3.08555561 87.4990702,7.93428585 C86.8405199,7.82408743 86.291728,7.82408743 85.6331777,7.82408743 C78.169608,7.82408743 72.1328971,13.8850002 72.1328971,21.3784924 C72.1328971,27.2190084 75.864682,32.3983339 81.2428426,34.1615085 L81.2428426,64.4660725 C81.2428426,65.3476598 82.0111512,66.1190487 82.8892183,66.1190487 L118.560691,66.1190487 C119.438759,66.1190487 120.207067,65.3476598 120.207067,64.4660725 L120.207067,34.1615085 C125.694986,32.2881355 129.317013,27.2190084 129.317013,21.3784924 C129.207254,13.8850002 123.170543,7.82408743 115.706974,7.82408743 Z M84.535594,62.8130963 L84.535594,57.8541676 L116.914316,57.8541676 L116.914316,62.8130963 L84.535594,62.8130963 Z M104.124079,155.787219 C104.934859,155.749521 105.7525,155.66576 106.577023,155.535782 C107.438376,153.177891 107.404284,150.856589 106.474748,148.495801 C106.152231,147.67669 106.552149,146.75017 107.367989,146.42636 C108.183829,146.102551 109.10665,146.504072 109.429167,147.323183 C110.393659,149.77275 110.620775,152.247187 110.110515,154.708466 C111.289161,154.344285 112.481285,153.889551 113.686944,153.34385 C113.631692,149.755384 112.826344,146.402821 111.269694,143.268718 C109.443703,139.592336 106.476798,139.974074 104.052094,143.468621 C102.745591,145.351586 102.697662,149.500023 104.124079,155.787219 Z M100.848381,155.688891 C99.4196436,149.014358 99.5541565,144.371062 101.445366,141.645401 C105.083705,136.401733 111.029042,135.636774 114.112703,141.845304 C115.657503,144.955547 116.552771,148.261285 116.797705,151.750914 C118.431095,150.819086 120.088485,149.72589 121.770006,148.470348 C122.473953,147.944732 123.46901,148.091586 123.992527,148.798355 C124.516045,149.505124 124.369777,150.50417 123.66583,151.029787 C121.244089,152.838029 118.850667,154.340865 116.48588,155.535965 C116.20182,155.876239 115.779458,156.094876 115.308556,156.106616 C111.159981,158.031295 107.100409,159 103.131554,159 C96.5347935,159 89.6874073,156.323774 82.5972782,151.029787 C81.8933311,150.50417 81.7470639,149.505124 82.2705813,148.798355 C82.7940987,148.091586 83.7891554,147.944732 84.4931026,148.470348 C90.2233602,152.74896 95.6733839,155.142268 100.848381,155.688891 Z M118.121658,31.2963497 C117.353349,31.5167466 116.804557,32.1779371 116.804557,32.949326 L116.804557,54.5482152 L114.828907,54.5482152 L114.828907,48.8178976 C114.828907,47.9363103 114.060598,47.1649214 113.182531,47.1649214 C112.304464,47.1649214 111.536155,47.9363103 111.536155,48.8178976 L111.536155,54.5482152 L106.48727,54.5482152 L106.48727,48.8178976 C106.48727,47.9363103 105.718961,47.1649214 104.840894,47.1649214 C103.962827,47.1649214 103.194518,47.9363103 103.194518,48.8178976 L103.194518,54.5482152 L98.145633,54.5482152 L98.145633,48.8178976 C98.145633,47.9363103 97.3773243,47.1649214 96.4992573,47.1649214 C95.6211902,47.1649214 94.8528816,47.9363103 94.8528816,48.8178976 L94.8528816,54.5482152 L89.8039962,54.5482152 L89.8039962,48.8178976 C89.8039962,47.9363103 89.0356875,47.1649214 88.1576205,47.1649214 C87.2795534,47.1649214 86.5112448,47.9363103 86.5112448,48.8178976 L86.5112448,54.5482152 L84.535594,54.5482152 L84.535594,32.949326 C84.535594,32.1779371 83.9868021,31.5167466 83.2184934,31.2963497 C78.6086415,30.1943656 75.3158901,26.1170242 75.3158901,21.268294 C75.3158901,15.6481749 79.925742,11.0198415 85.5234194,11.0198415 C86.291728,11.0198415 87.1697951,11.1300399 88.0478621,11.3504367 C88.9259291,11.5708335 89.6942378,11.1300399 90.0235129,10.2484526 C91.4503718,6.0609128 95.2919151,3.19575402 99.6822503,3.19575402 C104.292102,3.19575402 108.243404,6.28130963 109.560504,10.6892462 C109.670263,11.1300399 109.999538,11.5708335 110.438571,11.6810319 C110.877605,11.9014288 111.316638,11.9014288 111.755672,11.6810319 C112.963014,11.1300399 114.280115,10.909643 115.706974,10.909643 C121.304651,10.909643 125.914503,15.5379765 125.914503,21.1580956 C125.914503,26.1170242 122.73151,30.1943656 118.121658,31.2963497 Z M115.338673,117.378453 C113.935033,117.378453 112.797157,116.236016 112.797157,114.826748 C112.797157,113.41748 113.935033,112.275042 115.338673,112.275042 C116.742314,112.275042 117.88019,113.41748 117.88019,114.826748 C117.88019,116.236016 116.742314,117.378453 115.338673,117.378453 Z M88.6527527,117.378453 C87.249112,117.378453 86.1112365,116.236016 86.1112365,114.826748 C86.1112365,113.41748 87.249112,112.275042 88.6527527,112.275042 C90.0563934,112.275042 91.194269,113.41748 91.194269,114.826748 C91.194269,116.236016 90.0563934,117.378453 88.6527527,117.378453 Z M6.15027076,128.756468 C2.05006975,128.756468 0,128.047115 0,126.628386 C0,125.488751 0.718103529,124.918943 2.15433213,124.918943 C2.47864181,124.918943 2.75661737,124.930571 2.98826715,124.953829 L3.6484657,125.023602 C4.01910534,125.023602 4.28549859,124.901501 4.44765343,124.657293 C4.60980827,124.413086 4.69088448,123.977008 4.69088448,123.349046 C4.69088448,119.488243 4.47082049,113.976215 4.03068592,106.812798 C3.59055135,99.6726383 3.37048736,94.1722395 3.37048736,90.3114366 L3.43998195,86.6483438 L3.50947653,83.0201375 C3.50947653,81.6014087 3.45156496,80.2757312 3.33574007,79.0430652 C2.71028568,79.2523859 2.15433456,79.3570446 1.66787004,79.3570446 C0.555951119,79.3570446 0,78.7872359 0,77.6476013 C0,77.0894129 0.347469449,76.595191 1.04241877,76.1649208 C1.7373681,75.7346506 2.64078866,75.41486 3.75270758,75.2055394 C5.67540071,74.8566716 7.35483638,74.6822404 8.79106498,74.6822404 C9.34702444,74.6822404 9.83348167,74.8741148 10.2504513,75.2578693 C10.6674209,75.6416238 10.8759025,76.1009594 10.8759025,76.6358899 C10.8759025,77.1475626 10.7195413,77.5952695 10.4068141,77.979024 C10.0940869,78.3627785 9.69449702,78.5546528 9.20803249,78.5546528 C8.93005276,78.5546528 8.69840646,78.5430241 8.51308664,78.5197662 L7.95712996,78.5197662 C7.47066544,78.5197662 7.12319599,78.624425 6.91471119,78.8337456 C6.70622639,79.0430663 6.60198556,79.426815 6.60198556,79.9850034 C6.60198556,84.8226359 6.89154343,91.7882572 7.47066787,100.882076 C8.04979231,109.975895 8.33935018,116.941516 8.33935018,121.779149 L8.33935018,124.53519 C8.82581471,124.465416 9.31227194,124.43053 9.79873646,124.43053 C11.7677595,124.43053 12.7522563,125.2678 12.7522563,126.942365 L12.7522563,127.361005 L10.9801444,128.582035 L9.10379061,128.651809 C7.96870672,128.721582 6.98420995,128.756468 6.15027076,128.756468 Z M39.7856498,129.907726 C38.7895558,129.907726 36.8437269,125.000394 33.9481047,115.185582 C30.9134926,104.859097 28.0526608,94.3234492 25.3655235,83.5783231 L25.3655235,107.022117 C25.3655235,109.301387 25.5392582,112.696982 25.8867329,117.209004 C26.2110425,121.883832 26.3731949,125.279427 26.3731949,127.395891 C26.3731949,127.814532 26.1125929,128.175024 25.5913809,128.477376 C25.0701689,128.779728 24.4968443,128.930901 23.8713899,128.930901 C22.8289659,128.930901 22.3077617,128.558781 22.3077617,127.81453 C22.3077617,127.628468 22.3656733,126.919114 22.4814982,125.686448 C22.5973231,124.453782 22.6552347,123.453709 22.6552347,122.6862 C22.6552347,120.034806 22.5046646,116.034516 22.2035199,110.68521 C21.9023751,105.335905 21.7518051,101.951939 21.7518051,100.53321 L21.7518051,91.4278078 C21.7518051,89.7532427 21.8328813,87.5670377 21.9950361,84.8691272 C22.1571909,82.1712168 22.2382671,79.9850118 22.2382671,78.3104467 L22.2382671,77.8569209 C22.2382671,75.4846203 22.7594713,74.2984878 23.8018953,74.2984878 C24.4505147,74.2984878 25.2496944,75.3334465 26.1994585,77.4033951 C27.7746769,80.8455567 29.7552528,86.9855367 32.1412455,95.8235192 C33.4848142,100.870472 35.1063383,107.49886 37.0058664,115.708881 L38.1177798,120.662778 L38.1872744,121.011644 C38.1872744,117.639255 38.2336036,113.487792 38.3262635,108.557128 C38.4189234,103.626464 38.4652527,99.4750001 38.4652527,96.102612 L38.4652527,74.9613332 C38.7432324,73.7751829 39.5192475,73.1821166 40.7933213,73.1821166 C42.0673951,73.1821166 42.7044224,74.1124166 42.7044224,75.9730445 L42.7044224,76.3916837 C42.4264427,76.9731299 42.2874549,77.6708549 42.2874549,78.4848796 C42.2874549,81.3688529 42.217961,85.7645204 42.0789711,91.672014 C41.9168163,97.1841241 41.8357401,101.59142 41.8357401,104.894035 L41.8357401,126.733046 C41.8357401,127.477297 41.6330496,128.192465 41.2276625,128.878572 C40.8222753,129.564678 40.3416093,129.907726 39.7856498,129.907726 Z M64.718684,78.5179532 L64.6886748,78.5197662 L64.6994585,78.5197662 L64.6994585,78.4848796 C64.7054955,78.4959919 64.7119041,78.5070165 64.718684,78.5179532 Z M64.6886748,78.5197662 L63.7265343,78.5197662 L63.7265343,78.3453332 C61.942831,78.3453332 60.4834593,78.729082 59.3483755,79.496591 C58.9082409,79.8222009 58.5144422,80.2640934 58.1669675,80.8222818 C57.8194928,81.3804701 57.5415173,81.9619076 57.3330325,82.5666117 C57.1708776,83.0550265 57.037681,83.7178653 56.9334386,84.5551478 C56.8291962,85.3924304 56.7654935,86.1366704 56.7423285,86.7878902 C56.7191635,87.1832736 56.7075812,87.9507711 56.7075812,89.0904057 C56.7075812,89.648594 56.7423282,90.4742353 56.8118231,91.5673542 C56.881318,92.6372152 56.916065,93.4512277 56.916065,94.0094161 C56.916065,94.5676045 56.8118241,95.3932457 56.6033394,96.4863646 C56.3948546,97.6027414 56.2906137,98.4400114 56.2906137,98.9981997 L56.2906137,100.707643 C56.2906137,103.126459 56.3485253,105.673156 56.4643502,108.347808 C56.5106801,109.859568 56.6091298,111.208503 56.7597022,112.394654 C56.9102745,113.580804 57.1245473,114.952996 57.4025271,116.511272 C57.6573418,117.860228 57.9758555,119.034731 58.3580776,120.034819 C58.7402997,121.034906 59.2325481,122.011721 59.8348375,122.965293 C60.9467565,124.73289 62.4872044,125.616675 64.4562274,125.616675 C65.2670016,125.616675 66.2746631,125.186411 67.4792419,124.32587 C68.7069857,123.488588 69.5988239,123.069953 70.1547834,123.069953 C70.8265677,123.069953 71.5215066,123.430444 72.2396209,124.151437 C72.2396209,125.011978 72.0600951,125.791104 71.7010379,126.48884 C71.3419808,127.186575 70.8613147,127.756384 70.2590253,128.198283 C69.6799008,128.616924 68.9965443,128.965787 68.208935,129.244881 C67.4213258,129.523975 66.6337284,129.721664 65.8461191,129.837953 C64.989015,129.954242 64.2129999,130.012386 63.5180505,130.012386 C62.1744819,130.012386 60.9467565,129.704224 59.8348375,129.087891 C58.7229186,128.471558 57.7731688,127.628474 56.9855596,126.558613 C56.2906102,125.605041 55.6651652,124.35495 55.1092058,122.808303 C54.5532463,121.261656 54.101536,119.639446 53.7540614,117.941623 C53.4529167,116.476378 53.2096881,114.73788 53.0243682,112.726076 C52.8390484,110.714272 52.7232253,108.766457 52.6768953,106.882571 C52.6074004,105.208006 52.5726534,103.324148 52.5726534,101.230942 C52.5726534,99.4866034 52.5842357,97.9748659 52.6074007,96.6956842 C52.6305657,95.4165025 52.642148,94.0791963 52.642148,92.6837253 C52.642148,90.0323306 52.8043004,87.8344968 53.1286101,86.0901582 C52.9896202,85.3226492 52.9201264,84.5784092 52.9201264,83.8574159 C52.9201264,81.9502723 53.4123747,80.2699179 54.3968863,78.8163023 C55.3813978,77.3626868 56.7365287,76.2405124 58.4623195,75.4497456 C60.1881103,74.6589787 62.1165658,74.2636012 64.2477437,74.2636012 C65.0121879,74.2636012 65.7824119,74.4147749 66.5584386,74.717127 C67.3344654,75.019479 67.9714927,75.4322996 68.4695397,75.9556012 C68.9675867,76.4789028 69.2166065,77.0777835 69.2166065,77.7522611 C69.2166065,78.2406759 69.0254983,78.630239 68.6432762,78.9209621 C68.261054,79.2116852 67.7919703,79.3570446 67.2360108,79.3570446 C66.7495463,79.3570446 66.2399244,79.2756434 65.70713,79.1128384 C65.1974775,78.9571049 64.8679985,78.7588117 64.718684,78.5179532 L64.6886748,78.5197662 Z M89.2657942,130.849664 C88.0148854,130.849664 86.8508628,130.419401 85.7736913,129.55886 C84.6965199,128.69832 83.7988905,127.547074 83.0807762,126.105087 C82.4089918,124.77939 81.8067114,123.162993 81.273917,121.25585 C80.7411225,119.348706 80.3241591,117.441591 80.0230144,115.534448 C79.7450347,113.859882 79.5191796,112.028354 79.3454422,110.039808 C79.1717049,108.051262 79.0500906,106.289507 78.9805957,104.754489 C78.9342657,102.986892 78.9111011,101.730987 78.9111011,100.986736 C78.9111011,99.6842963 78.8995188,98.4051338 78.8763538,97.14921 L78.8068592,92.6488387 C78.8068592,89.8113812 78.9226824,87.2763137 79.1543321,85.0435602 C79.3859819,82.5317125 79.8724391,80.2873638 80.6137184,78.3104467 C81.007523,77.2871013 81.4592333,76.4440169 81.9688628,75.7811682 C82.4784923,75.1183195 83.1155196,74.5775827 83.8799639,74.1589414 C84.6675731,73.763558 85.5130821,73.5658692 86.4165162,73.5658692 C87.64426,73.5658692 88.7677446,73.8217017 89.7870036,74.3333744 C90.8062626,74.8450471 91.6749362,75.5892871 92.3930505,76.5661167 C93.1574948,77.6359778 93.8061044,78.7639665 94.3388989,79.9501168 C94.8716934,81.1362671 95.3002391,82.4968308 95.6245487,84.0318488 C95.9951884,85.8692189 96.2847462,87.4972439 96.493231,88.9159727 C96.7017158,90.3347015 96.8407036,91.9162115 96.9101986,93.6605501 C97.0723534,97.1724853 97.1534296,100.347134 97.1534296,103.184592 L97.1534296,107.30121 C97.1534296,108.347813 97.0491888,109.87118 96.840704,111.871355 C96.6322192,113.848272 96.5279783,115.336752 96.5279783,116.336839 L96.5279783,116.650819 C96.2268336,117.93 96.0762635,119.499882 96.0762635,121.36051 C96.0762635,122.686207 95.798288,124.058399 95.2423285,125.477128 C94.6863691,126.895857 93.8871893,128.128504 92.8447653,129.175108 C91.7791764,130.291484 90.5861979,130.849664 89.2657942,130.849664 Z M89.4047834,126.942365 C90.3545475,126.942365 91.1653095,126.046952 91.8370939,124.256097 C92.4162183,122.674564 92.844764,120.715119 93.1227437,118.377705 C93.4007234,116.040292 93.6207874,113.522667 93.7829422,110.824757 C93.8756021,109.173449 93.9219314,107.591939 93.9219314,106.080179 C93.9219314,103.940457 93.8871845,101.742623 93.8176895,99.4866121 C93.7018646,96.9515066 93.4238891,93.7419716 92.9837545,89.8579108 C92.5899499,86.6715856 91.8834287,83.7643981 90.8641697,81.1362612 C90.3777051,79.9035952 89.7812159,78.9616664 89.0746841,78.3104467 C88.3681523,77.6592269 87.5979284,77.3336219 86.7639892,77.3336219 C85.6520703,77.3336219 84.7718143,78.2639219 84.1231949,80.1245498 C83.4050806,82.241014 82.941788,84.380704 82.7333032,86.543684 C82.4321585,89.4043994 82.2584238,91.8115506 82.2120939,93.7652099 L82.1773466,95.0909007 C82.1310166,97.3236541 82.107852,98.5679304 82.107852,98.8237667 L82.107852,99.1377461 C82.107852,102.300814 82.4205745,106.219702 83.0460289,110.89453 C83.4398335,113.941308 83.8973349,116.581034 84.4185469,118.813788 C84.9397589,121.046541 85.6173244,122.930399 86.4512635,124.465417 C87.3315327,126.116724 88.3160295,126.942365 89.4047834,126.942365 Z M116.78565,130.849664 C115.534741,130.849664 114.370718,130.419401 113.293547,129.55886 C112.216375,128.69832 111.318746,127.547074 110.600632,126.105087 C109.928847,124.77939 109.326567,123.162993 108.793773,121.25585 C108.260978,119.348706 107.844015,117.441591 107.54287,115.534448 C107.26489,113.859882 107.039035,112.028354 106.865298,110.039808 C106.691561,108.051262 106.569946,106.289507 106.500451,104.754489 C106.454121,102.986892 106.430957,101.730987 106.430957,100.986736 C106.430957,99.6842963 106.419374,98.4051338 106.396209,97.14921 L106.326715,92.6488387 C106.326715,89.8113812 106.442538,87.2763137 106.674188,85.0435602 C106.905837,82.5317125 107.392295,80.2873638 108.133574,78.3104467 C108.527379,77.2871013 108.979089,76.4440169 109.488718,75.7811682 C109.998348,75.1183195 110.635375,74.5775827 111.399819,74.1589414 C112.187429,73.763558 113.032938,73.5658692 113.936372,73.5658692 C115.164116,73.5658692 116.2876,73.8217017 117.306859,74.3333744 C118.326118,74.8450471 119.194792,75.5892871 119.912906,76.5661167 C120.67735,77.6359778 121.32596,78.7639665 121.858755,79.9501168 C122.391549,81.1362671 122.820095,82.4968308 123.144404,84.0318488 C123.515044,85.8692189 123.804602,87.4972439 124.013087,88.9159727 C124.221571,90.3347015 124.360559,91.9162115 124.430054,93.6605501 C124.592209,97.1724853 124.673285,100.347134 124.673285,103.184592 L124.673285,107.30121 C124.673285,108.347813 124.569044,109.87118 124.36056,111.871355 C124.152075,113.848272 124.047834,115.336752 124.047834,116.336839 L124.047834,116.650819 C123.746689,117.93 123.596119,119.499882 123.596119,121.36051 C123.596119,122.686207 123.318144,124.058399 122.762184,125.477128 C122.206225,126.895857 121.407045,128.128504 120.364621,129.175108 C119.299032,130.291484 118.106054,130.849664 116.78565,130.849664 Z M116.924639,126.942365 C117.874403,126.942365 118.685165,126.046952 119.356949,124.256097 C119.936074,122.674564 120.36462,120.715119 120.642599,118.377705 C120.920579,116.040292 121.140643,113.522667 121.302798,110.824757 C121.395458,109.173449 121.441787,107.591939 121.441787,106.080179 C121.441787,103.940457 121.40704,101.742623 121.337545,99.4866121 C121.22172,96.9515066 120.943745,93.7419716 120.50361,89.8579108 C120.109805,86.6715856 119.403284,83.7643981 118.384025,81.1362612 C117.897561,79.9035952 117.301072,78.9616664 116.59454,78.3104467 C115.888008,77.6592269 115.117784,77.3336219 114.283845,77.3336219 C113.171926,77.3336219 112.29167,78.2639219 111.643051,80.1245498 C110.924936,82.241014 110.461644,84.380704 110.253159,86.543684 C109.952014,89.4043994 109.778279,91.8115506 109.731949,93.7652099 L109.697202,95.0909007 C109.650872,97.3236541 109.627708,98.5679304 109.627708,98.8237667 L109.627708,99.1377461 C109.627708,102.300814 109.94043,106.219702 110.565884,110.89453 C110.959689,113.941308 111.417191,116.581034 111.938403,118.813788 C112.459615,121.046541 113.13718,122.930399 113.971119,124.465417 C114.851388,126.116724 115.835885,126.942365 116.924639,126.942365 Z M151.741426,130.535685 C151.509776,130.535685 151.220218,130.48917 150.872744,130.396139 C150.525269,130.303107 150.258876,130.256592 150.073556,130.256592 C148.799482,122.953628 147.519636,116.854348 146.23398,111.958571 C144.948324,107.062794 143.332591,102.463623 141.386733,98.1609214 C141.016093,98.8121411 140.529636,99.7424411 139.927347,100.951849 C139.464047,101.858905 139.209236,102.568259 139.162906,103.079932 C139.139741,103.196221 139.099203,103.550898 139.041291,104.143973 C138.983378,104.737048 138.954422,105.41733 138.954422,106.184839 C138.954422,107.859404 139.035499,110.068867 139.197653,112.813293 C139.336643,115.743782 139.406137,117.953244 139.406137,119.441747 L139.406137,125.302695 C139.406137,127.837801 138.595375,129.105334 136.973827,129.105334 C135.583928,129.105334 134.888989,127.768028 134.888989,125.093376 C134.888989,123.116458 135.051142,119.906923 135.375451,115.464674 C135.676596,111.324777 135.827166,108.115242 135.827166,105.835973 L135.896661,99.6959317 C135.919826,97.6027253 135.931408,95.1258016 135.931408,92.2650862 C135.931408,89.8695277 135.757673,87.1251427 135.410199,84.0318488 C135.062724,80.9152971 134.888989,78.6942059 134.888989,77.3685085 C134.888989,76.7405466 135.085889,76.2056241 135.479693,75.7637249 C135.873498,75.3218258 136.348373,75.1008796 136.904332,75.1008796 C138.66487,75.1008796 139.545126,77.0312521 139.545126,80.892055 L139.232401,95.579313 C139.348226,95.3234767 139.799936,94.1606017 140.587545,92.0906532 C142.093269,88.1600767 143.714793,84.194673 145.452166,80.194323 C146.3556,78.1243744 147.212691,76.4382057 148.023466,75.1357662 C148.83424,73.8333266 149.459685,73.1821166 149.899819,73.1821166 C150.455779,73.1821166 150.930654,73.3623623 151.324458,73.7228589 C151.718263,74.0833556 151.915162,74.5310624 151.915162,75.065993 C151.915162,75.5311499 150.629525,78.4848524 148.058213,83.9271891 C145.440571,89.3695257 143.981199,92.8232644 143.680054,94.2885089 L143.680054,95.5444264 C144.421333,97.4050543 146.326624,103.213615 149.395984,112.970283 C152.465343,122.72695 154,127.895929 154,128.477376 C154,129.035564 153.768354,129.518157 153.305054,129.92517 C152.841755,130.332182 152.32055,130.535685 151.741426,130.535685 Z" id="Combined-Shape"></path>
            </g>
        </g>
    </g>
</svg>